workflow-optimisation-spectronaut
…
precursors <- precursors |> 
  mutate(species = grepl(pattern = "ups",PG_ProteinGroups) |> 
           as.factor() |>
           recode("TRUE"="ups","FALSE" = "yeast"))
precursors |> 
  pull(species) |>
  table()

 yeast    ups 
391266   7281 

precursors

# A tibble: 398,547 × 40
   R_FileName     PG_Genes PG_ProteinAccessions PG_ProteinGroups PG_ProteinNames
   <chr>          <chr>    <chr>                <chr>            <chr>          
 1 B000254_Ap_68… TY4B-P;… A0A0B7P3V8;P0C2J7;P… A0A0B7P3V8;P0C2… YP41B_YEAST;YH…
 2 B000254_Ap_68… YPR010C… A5Z2X5               A5Z2X5           YP010_YEAST    
 3 B000254_Ap_68… STE2     D6VTK4               D6VTK4           STE2_YEAST     
 4 B000254_Ap_68… STE2     D6VTK4               D6VTK4           STE2_YEAST     
 5 B000254_Ap_68… STE2     D6VTK4               D6VTK4           STE2_YEAST     
 6 B000254_Ap_68… CET1     O13297               O13297           CET1_YEAST     
 7 B000254_Ap_68… CET1     O13297               O13297           CET1_YEAST     
 8 B000254_Ap_68… CET1     O13297               O13297           CET1_YEAST     
 9 B000254_Ap_68… CET1     O13297               O13297           CET1_YEAST     
10 B000254_Ap_68… CET1     O13297               O13297           CET1_YEAST     
# ℹ 398,537 more rows
# ℹ 35 more variables: PG_Organisms <chr>, PG_NrOfPrecursorsIdentified <int>,
#   `PG_NrOfPrecursorsIdentified_(Experiment-wide)` <int>, PG_Qvalue <dbl>,
#   `PG_QValue_(Run-Wise)` <dbl>, PG_MS1Quantity <dbl>, PG_MS2Quantity <dbl>,
#   PG_Quantity <dbl>, PEP_StrippedSequence <chr>, EG_ModifiedSequence <chr>,
#   EG_PrecursorId <chr>, FG_Charge <int>, EG_IsDecoy <lgl>,
#   PEP_IsProteotypic <chr>, PEP_MS1Quantity <dbl>, PEP_MS2Quantity <dbl>, …
…
